%YAML 1.1
%TAG !u! tag:unity3d.com,2011:
--- !u!129 &1
PlayerSettings:
  m_ObjectHideFlags: 0
  serializedVersion: 2
  AndroidProfiler: 0
  defaultScreenOrientation: 3
  targetDevice: 2
  targetPlatform: 1
  targetResolution: 0
  accelerometerFrequency: 60
  companyName: Your Company
  productName: Product Name
  AndroidLicensePublicKey: 
  defaultScreenWidth: 600
  defaultScreenHeight: 480
  defaultScreenWidthWeb: 600
  defaultScreenHeightWeb: 450
  m_RenderingPath: 2
  m_ActiveColorSpace: 0
  m_MTRendering: 1
  iosShowActivityIndicatorOnLoading: -1
  androidShowActivityIndicatorOnLoading: -1
  displayResolutionDialog: 1
  allowedAutorotateToPortrait: 1
  allowedAutorotateToPortraitUpsideDown: 1
  allowedAutorotateToLandscapeRight: 1
  allowedAutorotateToLandscapeLeft: 1
  useOSAutorotation: 1
  use32BitDisplayBuffer: 0
  use24BitDepthBuffer: 0
  defaultIsFullScreen: 0
  runInBackground: 1
  captureSingleScreen: 0
  Override IPod Music: 0
  usePlayerLog: 1
  useMacAppStoreValidation: 0
  xboxSkinOnGPU: 1
  xboxEnableAvatar: 0
  xboxEnableKinect: 0
  xboxEnableKinectAutoTracking: 0
  xboxEnableSpeech: 0
  wiiHio2Usage: -1
  wiiLoadingScreenRectPlacement: 0
  wiiLoadingScreenBackground: {r: 1, g: 1, b: 1, a: 1}
  wiiLoadingScreenPeriod: 1000
  wiiLoadingScreenFileName: 
  wiiLoadingScreenRect:
    serializedVersion: 2
    x: 0
    y: 0
    width: 0
    height: 0
  m_SupportedAspectRatios:
    4:3: 1
    5:4: 1
    16:10: 1
    16:9: 1
    Others: 1
  debugUnloadMode: 0
  iPhoneBundleIdentifier: com.company.product
  iPhoneBundleVersion: 1.0
  AndroidBundleVersionCode: 1
  AndroidMinSdkVersion: 6
  AndroidPreferredInstallLocation: 1
  aotOptions: 
  apiCompatibilityLevel: 2
  iPhoneStrippingLevel: 0
  iPhoneScriptCallOptimization: 0
  ForceInternetPermission: 0
  ForceSDCardPermission: 0
  CreateWallpaper: 0
  StripUnusedMeshComponents: 1
  iPhoneSdkVersion: 14
  iPhoneTargetOSVersion: 4
  uIPrerenderedIcon: 0
  uIRequiresPersistentWiFi: 0
  uIStatusBarHidden: 1
  uIExitOnSuspend: 0
  uIStatusBarStyle: 0
  iPhoneSplashScreen: {fileID: 0}
  iPhoneHighResSplashScreen: {fileID: 0}
  iPadPortraitSplashScreen: {fileID: 0}
  iPadHighResPortraitSplashScreen: {fileID: 0}
  iPadLandscapeSplashScreen: {fileID: 0}
  iPadHighResLandscapeSplashScreen: {fileID: 0}
  AndroidTargetDevice: 1
  AndroidTargetGraphics: 1
  AndroidSplashScreenScale: 0
  AndroidKeystoreName: 
  AndroidKeyaliasName: 
  resolutionDialogBanner: {fileID: 0}
  m_BuildTargetIcons:
  - m_BuildTarget: 
    m_Icons:
    - m_Icon: {fileID: 0}
      m_Size: 128
  m_BuildTargetBatching:
  - m_BuildTarget: Web
    m_StaticBatching: 1
    m_DynamicBatching: 1
  - m_BuildTarget: Standalone
    m_StaticBatching: 1
    m_DynamicBatching: 1
  - m_BuildTarget: Android
    m_StaticBatching: 1
    m_DynamicBatching: 1
  webPlayerTemplate: APPLICATION:No Context Menu
  m_TemplateCustomTags: {}
  wiiRegion: 1
  wiiGameCode: RABA
  wiiGameVersion: 
  wiiCompanyCode: ZZ
  wiiSupportsNunchuk: 0
  wiiSupportsClassicController: 0
  wiiSupportsBalanceBoard: 0
  wiiSupportsMotionPlus: 0
  wiiControllerCount: 1
  wiiFloatingPointExceptions: 0
  wiiScreenCrashDumps: 1
  wiiMemoryLabelCount: 147
  wiiMemorySetup: 5effbee7ffffff75f70100000000000000000000
  XboxTitleId: 
  XboxImageXexPath: 
  XboxSpaPath: 
  XboxGenerateSpa: 0
  XboxDeployKinectResources: 0
  XboxSplashScreen: {fileID: 0}
  xboxSpeechDB: 0
  ps3TitleConfigPath: 
  ps3DLCConfigPath: 
  ps3ThumbnailPath: 
  ps3BackgroundPath: 
  ps3SoundPath: 
  ps3TrophyCommId: 
  ps3TrophyPackagePath: 
  ps3ReservedMemorySizeMB: 2
  ps3BootCheckMaxSaveGameSizeKB: 128
  ps3TrophyCommSig: 
  ps3SaveGameSlots: 1
  ps3TrialMode: 0
  flashStrippingLevel: 2
  firstStreamedLevelWithResources: 0
  unityRebuildLibraryVersion: 9
  unityForwardCompatibleVersion: 36
  unityStandardAssetsVersion: 0
