%YAML 1.1
%TAG !u! tag:unity3d.com,2011:
--- !u!1 &100000
GameObject:
  m_ObjectHideFlags: 0
  m_PrefabParentObject: {fileID: 0}
  m_PrefabInternal: {fileID: 100100000}
  serializedVersion: 4
  m_Component:
  - 4: {fileID: 400000}
  - 114: {fileID: 11400000}
  m_Layer: 0
  m_Name: Arimo14
  m_TagString: Untagged
  m_Icon: {fileID: 0}
  m_NavMeshLayer: 0
  m_StaticEditorFlags: 0
  m_IsActive: 1
--- !u!1002 &100001
EditorExtensionImpl:
  serializedVersion: 6
--- !u!4 &400000
Transform:
  m_ObjectHideFlags: 1
  m_PrefabParentObject: {fileID: 0}
  m_PrefabInternal: {fileID: 100100000}
  m_GameObject: {fileID: 100000}
  m_LocalRotation: {x: 0, y: 0, z: 0, w: 1}
  m_LocalPosition: {x: 0, y: 0, z: 0}
  m_LocalScale: {x: 1, y: 1, z: 1}
  m_Children: []
  m_Father: {fileID: 0}
  m_RootOrder: 0
--- !u!1002 &400001
EditorExtensionImpl:
  serializedVersion: 6
--- !u!114 &11400000
MonoBehaviour:
  m_ObjectHideFlags: 1
  m_PrefabParentObject: {fileID: 0}
  m_PrefabInternal: {fileID: 100100000}
  m_GameObject: {fileID: 100000}
  m_Enabled: 1
  m_EditorHideFlags: 0
  m_Script: {fileID: 11500000, guid: 0b4eb3a400afab046abb8471a9d746d6, type: 3}
  m_Name: 
  m_EditorClassIdentifier: 
  mMat: {fileID: 2100000, guid: ec268c3ea1baceb4abb2168daed86f68, type: 2}
  mUVRect:
    serializedVersion: 2
    x: 0
    y: 0.6484375
    width: 0.24804688
    height: 0.24804688
  mFont:
    mGlyphs: []
    mSize: 14
    mBase: 11
    mWidth: 127
    mHeight: 127
    mSpriteName: Arimo14
    mSaved:
    - index: 0
      x: 0
      y: 0
      width: 0
      height: 0
      offsetX: 0
      offsetY: 0
      advance: 0
      channel: 0
    - index: 1
      x: 0
      y: 0
      width: 0
      height: 0
      offsetX: 0
      offsetY: 0
      advance: 0
      channel: 0
    - index: 2
      x: 0
      y: 0
      width: 0
      height: 0
      offsetX: 0
      offsetY: 0
      advance: 0
      channel: 0
    - index: 3
      x: 0
      y: 0
      width: 0
      height: 0
      offsetX: 0
      offsetY: 0
      advance: 0
      channel: 0
    - index: 4
      x: 0
      y: 0
      width: 0
      height: 0
      offsetX: 0
      offsetY: 0
      advance: 0
      channel: 0
    - index: 5
      x: 0
      y: 0
      width: 0
      height: 0
      offsetX: 0
      offsetY: 0
      advance: 0
      channel: 0
    - index: 6
      x: 0
      y: 0
      width: 0
      height: 0
      offsetX: 0
      offsetY: 0
      advance: 0
      channel: 0
    - index: 7
      x: 0
      y: 0
      width: 0
      height: 0
      offsetX: 0
      offsetY: 0
      advance: 0
      channel: 0
    - index: 8
      x: 0
      y: 0
      width: 0
      height: 0
      offsetX: 0
      offsetY: 0
      advance: 0
      channel: 0
    - index: 9
      x: 0
      y: 0
      width: 0
      height: 0
      offsetX: 0
      offsetY: 0
      advance: 0
      channel: 0
    - index: 10
      x: 0
      y: 0
      width: 0
      height: 0
      offsetX: 0
      offsetY: 0
      advance: 0
      channel: 0
    - index: 11
      x: 0
      y: 0
      width: 0
      height: 0
      offsetX: 0
      offsetY: 0
      advance: 0
      channel: 0
    - index: 12
      x: 0
      y: 0
      width: 0
      height: 0
      offsetX: 0
      offsetY: 0
      advance: 0
      channel: 0
    - index: 13
      x: 0
      y: 0
      width: 0
      height: 0
      offsetX: 0
      offsetY: 0
      advance: 0
      channel: 0
    - index: 14
      x: 0
      y: 0
      width: 0
      height: 0
      offsetX: 0
      offsetY: 0
      advance: 0
      channel: 0
    - index: 15
      x: 0
      y: 0
      width: 0
      height: 0
      offsetX: 0
      offsetY: 0
      advance: 0
      channel: 0
    - index: 16
      x: 0
      y: 0
      width: 0
      height: 0
      offsetX: 0
      offsetY: 0
      advance: 0
      channel: 0
    - index: 17
      x: 0
      y: 0
      width: 0
      height: 0
      offsetX: 0
      offsetY: 0
      advance: 0
      channel: 0
    - index: 18
      x: 0
      y: 0
      width: 0
      height: 0
      offsetX: 0
      offsetY: 0
      advance: 0
      channel: 0
    - index: 19
      x: 0
      y: 0
      width: 0
      height: 0
      offsetX: 0
      offsetY: 0
      advance: 0
      channel: 0
    - index: 20
      x: 0
      y: 0
      width: 0
      height: 0
      offsetX: 0
      offsetY: 0
      advance: 0
      channel: 0
    - index: 21
      x: 0
      y: 0
      width: 0
      height: 0
      offsetX: 0
      offsetY: 0
      advance: 0
      channel: 0
    - index: 22
      x: 0
      y: 0
      width: 0
      height: 0
      offsetX: 0
      offsetY: 0
      advance: 0
      channel: 0
    - index: 23
      x: 0
      y: 0
      width: 0
      height: 0
      offsetX: 0
      offsetY: 0
      advance: 0
      channel: 0
    - index: 24
      x: 0
      y: 0
      width: 0
      height: 0
      offsetX: 0
      offsetY: 0
      advance: 0
      channel: 0
    - index: 25
      x: 0
      y: 0
      width: 0
      height: 0
      offsetX: 0
      offsetY: 0
      advance: 0
      channel: 0
    - index: 26
      x: 0
      y: 0
      width: 0
      height: 0
      offsetX: 0
      offsetY: 0
      advance: 0
      channel: 0
    - index: 27
      x: 0
      y: 0
      width: 0
      height: 0
      offsetX: 0
      offsetY: 0
      advance: 0
      channel: 0
    - index: 28
      x: 0
      y: 0
      width: 0
      height: 0
      offsetX: 0
      offsetY: 0
      advance: 0
      channel: 0
    - index: 29
      x: 0
      y: 0
      width: 0
      height: 0
      offsetX: 0
      offsetY: 0
      advance: 0
      channel: 0
    - index: 30
      x: 0
      y: 0
      width: 0
      height: 0
      offsetX: 0
      offsetY: 0
      advance: 0
      channel: 0
    - index: 31
      x: 0
      y: 0
      width: 0
      height: 0
      offsetX: 0
      offsetY: 0
      advance: 0
      channel: 0
    - index: 32
      x: 125
      y: 0
      width: 1
      height: 1
      offsetX: 0
      offsetY: 11
      advance: 4
      channel: 0
    - index: 33
      x: 89
      y: 94
      width: 2
      height: 10
      offsetX: 1
      offsetY: 1
      advance: 3
      channel: 0
    - index: 34
      x: 56
      y: 120
      width: 5
      height: 3
      offsetX: 0
      offsetY: 1
      advance: 5
      channel: 0
    - index: 35
      x: 0
      y: 63
      width: 7
      height: 10
      offsetX: 0
      offsetY: 1
      advance: 7
      channel: 0
    - index: 36
      x: 83
      y: 27
      width: 7
      height: 11
      offsetX: 0
      offsetY: 1
      advance: 7
      channel: 0
    - index: 37
      x: 14
      y: 41
      width: 12
      height: 10
      offsetX: 0
      offsetY: 1
      advance: 12
      channel: 0
    - index: 38
      x: 92
      y: 94
      width: 9
      height: 9
      offsetX: 0
      offsetY: 2
      advance: 9
      channel: 0
    - index: 39
      x: 69
      y: 120
      width: 2
      height: 3
      offsetX: 0
      offsetY: 1
      advance: 2
      channel: 0
    - index: 40
      x: 120
      y: 0
      width: 4
      height: 13
      offsetX: 0
      offsetY: 1
      advance: 4
      channel: 0
    - index: 41
      x: 0
      y: 14
      width: 4
      height: 13
      offsetX: 0
      offsetY: 1
      advance: 4
      channel: 0
    - index: 42
      x: 83
      y: 113
      width: 5
      height: 5
      offsetX: 0
      offsetY: 1
      advance: 5
      channel: 0
    - index: 43
      x: 72
      y: 106
      width: 8
      height: 7
      offsetX: 0
      offsetY: 3
      advance: 8
      channel: 0
    - index: 44
      x: 72
      y: 120
      width: 2
      height: 3
      offsetX: 1
      offsetY: 10
      advance: 4
      channel: 0
    - index: 45
      x: 0
      y: 125
      width: 4
      height: 1
      offsetX: 0
      offsetY: 7
      advance: 4
      channel: 0
    - index: 46
      x: 123
      y: 117
      width: 2
      height: 1
      offsetX: 1
      offsetY: 10
      advance: 4
      channel: 0
    - index: 47
      x: 66
      y: 95
      width: 4
      height: 10
      offsetX: 0
      offsetY: 1
      advance: 4
      channel: 0
    - index: 48
      x: 8
      y: 63
      width: 7
      height: 10
      offsetX: 0
      offsetY: 1
      advance: 7
      channel: 0
    - index: 49
      x: 16
      y: 63
      width: 7
      height: 10
      offsetX: 0
      offsetY: 1
      advance: 7
      channel: 0
    - index: 50
      x: 24
      y: 63
      width: 7
      height: 10
      offsetX: 0
      offsetY: 1
      advance: 7
      channel: 0
    - index: 51
      x: 32
      y: 63
      width: 7
      height: 10
      offsetX: 0
      offsetY: 1
      advance: 7
      channel: 0
    - index: 52
      x: 40
      y: 62
      width: 7
      height: 10
      offsetX: 0
      offsetY: 1
      advance: 7
      channel: 0
    - index: 53
      x: 48
      y: 62
      width: 7
      height: 10
      offsetX: 0
      offsetY: 1
      advance: 7
      channel: 0
    - index: 54
      x: 56
      y: 62
      width: 7
      height: 10
      offsetX: 0
      offsetY: 1
      advance: 7
      channel: 0
    - index: 55
      x: 40
      y: 95
      width: 7
      height: 10
      offsetX: 0
      offsetY: 1
      advance: 7
      channel: 0
    - index: 56
      x: 64
      y: 62
      width: 7
      height: 10
      offsetX: 0
      offsetY: 1
      advance: 7
      channel: 0
    - index: 57
      x: 72
      y: 62
      width: 7
      height: 10
      offsetX: 0
      offsetY: 1
      advance: 7
      channel: 0
    - index: 58
      x: 52
      y: 114
      width: 2
      height: 7
      offsetX: 1
      offsetY: 4
      advance: 4
      channel: 0
    - index: 59
      x: 124
      y: 94
      width: 2
      height: 9
      offsetX: 1
      offsetY: 4
      advance: 4
      channel: 0
    - index: 60
      x: 63
      y: 106
      width: 8
      height: 7
      offsetX: 0
      offsetY: 3
      advance: 8
      channel: 0
    - index: 61
      x: 47
      y: 122
      width: 8
      height: 4
      offsetX: 0
      offsetY: 5
      advance: 8
      channel: 0
    - index: 62
      x: 54
      y: 106
      width: 8
      height: 7
      offsetX: 0
      offsetY: 3
      advance: 8
      channel: 0
    - index: 63
      x: 80
      y: 61
      width: 7
      height: 10
      offsetX: 0
      offsetY: 1
      advance: 7
      channel: 0
    - index: 64
      x: 28
      y: 14
      width: 11
      height: 12
      offsetX: 1
      offsetY: 1
      advance: 13
      channel: 0
    - index: 65
      x: 20
      y: 52
      width: 9
      height: 10
      offsetX: 0
      offsetY: 1
      advance: 9
      channel: 0
    - index: 66
      x: 104
      y: 50
      width: 8
      height: 10
      offsetX: 1
      offsetY: 1
      advance: 9
      channel: 0
    - index: 67
      x: 115
      y: 38
      width: 9
      height: 10
      offsetX: 0
      offsetY: 1
      advance: 9
      channel: 0
    - index: 68
      x: 86
      y: 50
      width: 8
      height: 10
      offsetX: 1
      offsetY: 1
      advance: 9
      channel: 0
    - index: 69
      x: 50
      y: 51
      width: 8
      height: 10
      offsetX: 1
      offsetY: 1
      advance: 9
      channel: 0
    - index: 70
      x: 88
      y: 61
      width: 7
      height: 10
      offsetX: 1
      offsetY: 1
      advance: 8
      channel: 0
    - index: 71
      x: 30
      y: 52
      width: 9
      height: 10
      offsetX: 0
      offsetY: 1
      advance: 10
      channel: 0
    - index: 72
      x: 96
      y: 61
      width: 7
      height: 10
      offsetX: 1
      offsetY: 1
      advance: 9
      channel: 0
    - index: 73
      x: 86
      y: 94
      width: 2
      height: 10
      offsetX: 1
      offsetY: 1
      advance: 3
      channel: 0
    - index: 74
      x: 120
      y: 72
      width: 6
      height: 10
      offsetX: 0
      offsetY: 1
      advance: 6
      channel: 0
    - index: 75
      x: 77
      y: 50
      width: 8
      height: 10
      offsetX: 1
      offsetY: 1
      advance: 9
      channel: 0
    - index: 76
      x: 120
      y: 61
      width: 6
      height: 10
      offsetX: 1
      offsetY: 1
      advance: 7
      channel: 0
    - index: 77
      x: 105
      y: 39
      width: 9
      height: 10
      offsetX: 1
      offsetY: 1
      advance: 11
      channel: 0
    - index: 78
      x: 80
      y: 72
      width: 7
      height: 10
      offsetX: 1
      offsetY: 1
      advance: 9
      channel: 0
    - index: 79
      x: 73
      y: 39
      width: 10
      height: 10
      offsetX: 0
      offsetY: 1
      advance: 10
      channel: 0
    - index: 80
      x: 95
      y: 50
      width: 8
      height: 10
      offsetX: 1
      offsetY: 1
      advance: 9
      channel: 0
    - index: 81
      x: 62
      y: 14
      width: 10
      height: 12
      offsetX: 0
      offsetY: 1
      advance: 10
      channel: 0
    - index: 82
      x: 113
      y: 50
      width: 8
      height: 10
      offsetX: 1
      offsetY: 1
      advance: 9
      channel: 0
    - index: 83
      x: 10
      y: 52
      width: 9
      height: 10
      offsetX: 0
      offsetY: 1
      advance: 9
      channel: 0
    - index: 84
      x: 104
      y: 61
      width: 7
      height: 10
      offsetX: 0
      offsetY: 1
      advance: 7
      channel: 0
    - index: 85
      x: 112
      y: 61
      width: 7
      height: 10
      offsetX: 1
      offsetY: 1
      advance: 9
      channel: 0
    - index: 86
      x: 95
      y: 39
      width: 9
      height: 10
      offsetX: 0
      offsetY: 1
      advance: 9
      channel: 0
    - index: 87
      x: 0
      y: 41
      width: 13
      height: 10
      offsetX: 0
      offsetY: 1
      advance: 13
      channel: 0
    - index: 88
      x: 0
      y: 74
      width: 7
      height: 10
      offsetX: 0
      offsetY: 1
      advance: 7
      channel: 0
    - index: 89
      x: 40
      y: 51
      width: 9
      height: 10
      offsetX: 0
      offsetY: 1
      advance: 9
      channel: 0
    - index: 90
      x: 8
      y: 74
      width: 7
      height: 10
      offsetX: 0
      offsetY: 1
      advance: 7
      channel: 0
    - index: 91
      x: 10
      y: 14
      width: 3
      height: 13
      offsetX: 1
      offsetY: 1
      advance: 4
      channel: 0
    - index: 92
      x: 120
      y: 83
      width: 4
      height: 10
      offsetX: 0
      offsetY: 1
      advance: 4
      channel: 0
    - index: 93
      x: 14
      y: 14
      width: 3
      height: 13
      offsetX: 0
      offsetY: 1
      advance: 4
      channel: 0
    - index: 94
      x: 77
      y: 114
      width: 5
      height: 5
      offsetX: 0
      offsetY: 1
      advance: 5
      channel: 0
    - index: 95
      x: 98
      y: 119
      width: 9
      height: 1
      offsetX: -1
      offsetY: 13
      advance: 7
      channel: 0
    - index: 96
      x: 84
      y: 119
      width: 4
      height: 2
      offsetX: 0
      offsetY: 1
      advance: 4
      channel: 0
    - index: 97
      x: 16
      y: 116
      width: 7
      height: 7
      offsetX: 0
      offsetY: 4
      advance: 7
      channel: 0
    - index: 98
      x: 16
      y: 74
      width: 7
      height: 10
      offsetX: 0
      offsetY: 1
      advance: 7
      channel: 0
    - index: 99
      x: 32
      y: 115
      width: 7
      height: 7
      offsetX: 0
      offsetY: 4
      advance: 7
      channel: 0
    - index: 100
      x: 24
      y: 74
      width: 7
      height: 10
      offsetX: 0
      offsetY: 1
      advance: 7
      channel: 0
    - index: 101
      x: 0
      y: 117
      width: 7
      height: 7
      offsetX: 0
      offsetY: 4
      advance: 7
      channel: 0
    - index: 102
      x: 56
      y: 95
      width: 4
      height: 10
      offsetX: 0
      offsetY: 1
      advance: 3
      channel: 0
    - index: 103
      x: 32
      y: 74
      width: 7
      height: 10
      offsetX: 0
      offsetY: 4
      advance: 7
      channel: 0
    - index: 104
      x: 40
      y: 73
      width: 7
      height: 10
      offsetX: 0
      offsetY: 1
      advance: 7
      channel: 0
    - index: 105
      x: 83
      y: 94
      width: 2
      height: 10
      offsetX: 0
      offsetY: 1
      advance: 3
      channel: 0
    - index: 106
      x: 18
      y: 14
      width: 3
      height: 13
      offsetX: -1
      offsetY: 1
      advance: 3
      channel: 0
    - index: 107
      x: 48
      y: 73
      width: 7
      height: 10
      offsetX: 0
      offsetY: 1
      advance: 7
      channel: 0
    - index: 108
      x: 80
      y: 94
      width: 2
      height: 10
      offsetX: 0
      offsetY: 1
      advance: 3
      channel: 0
    - index: 109
      x: 32
      y: 107
      width: 11
      height: 7
      offsetX: 0
      offsetY: 4
      advance: 11
      channel: 0
    - index: 110
      x: 105
      y: 104
      width: 7
      height: 7
      offsetX: 0
      offsetY: 4
      advance: 7
      channel: 0
    - index: 111
      x: 97
      y: 104
      width: 7
      height: 7
      offsetX: 0
      offsetY: 4
      advance: 7
      channel: 0
    - index: 112
      x: 56
      y: 73
      width: 7
      height: 10
      offsetX: 0
      offsetY: 4
      advance: 7
      channel: 0
    - index: 113
      x: 64
      y: 73
      width: 7
      height: 10
      offsetX: 0
      offsetY: 4
      advance: 7
      channel: 0
    - index: 114
      x: 47
      y: 114
      width: 4
      height: 7
      offsetX: 0
      offsetY: 4
      advance: 4
      channel: 0
    - index: 115
      x: 89
      y: 105
      width: 7
      height: 7
      offsetX: 0
      offsetY: 4
      advance: 7
      channel: 0
    - index: 116
      x: 119
      y: 94
      width: 4
      height: 9
      offsetX: 0
      offsetY: 2
      advance: 4
      channel: 0
    - index: 117
      x: 81
      y: 105
      width: 7
      height: 7
      offsetX: 0
      offsetY: 4
      advance: 7
      channel: 0
    - index: 118
      x: 121
      y: 104
      width: 5
      height: 7
      offsetX: 0
      offsetY: 4
      advance: 5
      channel: 0
    - index: 119
      x: 44
      y: 106
      width: 9
      height: 7
      offsetX: 0
      offsetY: 4
      advance: 9
      channel: 0
    - index: 120
      x: 8
      y: 116
      width: 7
      height: 7
      offsetX: 0
      offsetY: 4
      advance: 7
      channel: 0
    - index: 121
      x: 72
      y: 73
      width: 7
      height: 10
      offsetX: 0
      offsetY: 4
      advance: 7
      channel: 0
    - index: 122
      x: 24
      y: 115
      width: 7
      height: 7
      offsetX: 0
      offsetY: 4
      advance: 7
      channel: 0
    - index: 123
      x: 115
      y: 0
      width: 4
      height: 13
      offsetX: 0
      offsetY: 1
      advance: 4
      channel: 0
    - index: 124
      x: 25
      y: 14
      width: 2
      height: 13
      offsetX: 1
      offsetY: 1
      advance: 3
      channel: 0
    - index: 125
      x: 5
      y: 14
      width: 4
      height: 13
      offsetX: 0
      offsetY: 1
      advance: 4
      channel: 0
    - index: 126
      x: 75
      y: 120
      width: 8
      height: 2
      offsetX: 0
      offsetY: 5
      advance: 8
      channel: 0
    - index: 127
      x: 0
      y: 0
      width: 0
      height: 0
      offsetX: 0
      offsetY: 0
      advance: 0
      channel: 0
    - index: 128
      x: 0
      y: 0
      width: 0
      height: 0
      offsetX: 0
      offsetY: 0
      advance: 0
      channel: 0
    - index: 129
      x: 0
      y: 0
      width: 0
      height: 0
      offsetX: 0
      offsetY: 0
      advance: 0
      channel: 0
    - index: 130
      x: 0
      y: 0
      width: 0
      height: 0
      offsetX: 0
      offsetY: 0
      advance: 0
      channel: 0
    - index: 131
      x: 0
      y: 0
      width: 0
      height: 0
      offsetX: 0
      offsetY: 0
      advance: 0
      channel: 0
    - index: 132
      x: 0
      y: 0
      width: 0
      height: 0
      offsetX: 0
      offsetY: 0
      advance: 0
      channel: 0
    - index: 133
      x: 0
      y: 0
      width: 0
      height: 0
      offsetX: 0
      offsetY: 0
      advance: 0
      channel: 0
    - index: 134
      x: 0
      y: 0
      width: 0
      height: 0
      offsetX: 0
      offsetY: 0
      advance: 0
      channel: 0
    - index: 135
      x: 0
      y: 0
      width: 0
      height: 0
      offsetX: 0
      offsetY: 0
      advance: 0
      channel: 0
    - index: 136
      x: 0
      y: 0
      width: 0
      height: 0
      offsetX: 0
      offsetY: 0
      advance: 0
      channel: 0
    - index: 137
      x: 0
      y: 0
      width: 0
      height: 0
      offsetX: 0
      offsetY: 0
      advance: 0
      channel: 0
    - index: 138
      x: 0
      y: 0
      width: 0
      height: 0
      offsetX: 0
      offsetY: 0
      advance: 0
      channel: 0
    - index: 139
      x: 0
      y: 0
      width: 0
      height: 0
      offsetX: 0
      offsetY: 0
      advance: 0
      channel: 0
    - index: 140
      x: 0
      y: 0
      width: 0
      height: 0
      offsetX: 0
      offsetY: 0
      advance: 0
      channel: 0
    - index: 141
      x: 0
      y: 0
      width: 0
      height: 0
      offsetX: 0
      offsetY: 0
      advance: 0
      channel: 0
    - index: 142
      x: 0
      y: 0
      width: 0
      height: 0
      offsetX: 0
      offsetY: 0
      advance: 0
      channel: 0
    - index: 143
      x: 0
      y: 0
      width: 0
      height: 0
      offsetX: 0
      offsetY: 0
      advance: 0
      channel: 0
    - index: 144
      x: 0
      y: 0
      width: 0
      height: 0
      offsetX: 0
      offsetY: 0
      advance: 0
      channel: 0
    - index: 145
      x: 0
      y: 0
      width: 0
      height: 0
      offsetX: 0
      offsetY: 0
      advance: 0
      channel: 0
    - index: 146
      x: 0
      y: 0
      width: 0
      height: 0
      offsetX: 0
      offsetY: 0
      advance: 0
      channel: 0
    - index: 147
      x: 0
      y: 0
      width: 0
      height: 0
      offsetX: 0
      offsetY: 0
      advance: 0
      channel: 0
    - index: 148
      x: 0
      y: 0
      width: 0
      height: 0
      offsetX: 0
      offsetY: 0
      advance: 0
      channel: 0
    - index: 149
      x: 0
      y: 0
      width: 0
      height: 0
      offsetX: 0
      offsetY: 0
      advance: 0
      channel: 0
    - index: 150
      x: 0
      y: 0
      width: 0
      height: 0
      offsetX: 0
      offsetY: 0
      advance: 0
      channel: 0
    - index: 151
      x: 0
      y: 0
      width: 0
      height: 0
      offsetX: 0
      offsetY: 0
      advance: 0
      channel: 0
    - index: 152
      x: 0
      y: 0
      width: 0
      height: 0
      offsetX: 0
      offsetY: 0
      advance: 0
      channel: 0
    - index: 153
      x: 0
      y: 0
      width: 0
      height: 0
      offsetX: 0
      offsetY: 0
      advance: 0
      channel: 0
    - index: 154
      x: 0
      y: 0
      width: 0
      height: 0
      offsetX: 0
      offsetY: 0
      advance: 0
      channel: 0
    - index: 155
      x: 0
      y: 0
      width: 0
      height: 0
      offsetX: 0
      offsetY: 0
      advance: 0
      channel: 0
    - index: 156
      x: 0
      y: 0
      width: 0
      height: 0
      offsetX: 0
      offsetY: 0
      advance: 0
      channel: 0
    - index: 157
      x: 0
      y: 0
      width: 0
      height: 0
      offsetX: 0
      offsetY: 0
      advance: 0
      channel: 0
    - index: 158
      x: 0
      y: 0
      width: 0
      height: 0
      offsetX: 0
      offsetY: 0
      advance: 0
      channel: 0
    - index: 159
      x: 0
      y: 0
      width: 0
      height: 0
      offsetX: 0
      offsetY: 0
      advance: 0
      channel: 0
    - index: 160
      x: 125
      y: 2
      width: 1
      height: 1
      offsetX: 0
      offsetY: 11
      advance: 4
      channel: 0
    - index: 161
      x: 0
      y: 107
      width: 2
      height: 9
      offsetX: 1
      offsetY: 4
      advance: 3
      channel: 0
    - index: 162
      x: 88
      y: 72
      width: 7
      height: 10
      offsetX: 0
      offsetY: 1
      advance: 7
      channel: 0
    - index: 163
      x: 96
      y: 72
      width: 7
      height: 10
      offsetX: 0
      offsetY: 1
      advance: 7
      channel: 0
    - index: 164
      x: 11
      y: 107
      width: 7
      height: 8
      offsetX: 0
      offsetY: 3
      advance: 7
      channel: 0
    - index: 165
      x: 104
      y: 72
      width: 7
      height: 10
      offsetX: 0
      offsetY: 1
      advance: 7
      channel: 0
    - index: 166
      x: 22
      y: 14
      width: 2
      height: 13
      offsetX: 1
      offsetY: 1
      advance: 3
      channel: 0
    - index: 167
      x: 91
      y: 27
      width: 7
      height: 11
      offsetX: 0
      offsetY: 1
      advance: 7
      channel: 0
    - index: 168
      x: 89
      y: 119
      width: 4
      height: 2
      offsetX: 0
      offsetY: 1
      advance: 4
      channel: 0
    - index: 169
      x: 84
      y: 39
      width: 10
      height: 10
      offsetX: 0
      offsetY: 1
      advance: 10
      channel: 0
    - index: 170
      x: 71
      y: 114
      width: 5
      height: 5
      offsetX: 0
      offsetY: 1
      advance: 4
      channel: 0
    - index: 171
      x: 55
      y: 114
      width: 7
      height: 5
      offsetX: 0
      offsetY: 5
      advance: 7
      channel: 0
    - index: 172
      x: 110
      y: 112
      width: 8
      height: 4
      offsetX: 0
      offsetY: 6
      advance: 8
      channel: 0
    - index: 173
      x: 118
      y: 117
      width: 4
      height: 1
      offsetX: 0
      offsetY: 7
      advance: 4
      channel: 0
    - index: 174
      x: 62
      y: 40
      width: 10
      height: 10
      offsetX: 0
      offsetY: 1
      advance: 10
      channel: 0
    - index: 175
      x: 108
      y: 118
      width: 9
      height: 1
      offsetX: -1
      offsetY: 1
      advance: 7
      channel: 0
    - index: 176
      x: 119
      y: 112
      width: 5
      height: 4
      offsetX: 0
      offsetY: 1
      advance: 5
      channel: 0
    - index: 177
      x: 3
      y: 107
      width: 7
      height: 8
      offsetX: 0
      offsetY: 3
      advance: 7
      channel: 0
    - index: 178
      x: 95
      y: 113
      width: 4
      height: 5
      offsetX: 0
      offsetY: 1
      advance: 4
      channel: 0
    - index: 179
      x: 100
      y: 112
      width: 4
      height: 5
      offsetX: 0
      offsetY: 1
      advance: 4
      channel: 0
    - index: 180
      x: 94
      y: 119
      width: 3
      height: 2
      offsetX: 0
      offsetY: 1
      advance: 4
      channel: 0
    - index: 181
      x: 112
      y: 72
      width: 7
      height: 10
      offsetX: 0
      offsetY: 4
      advance: 7
      channel: 0
    - index: 182
      x: 45
      y: 27
      width: 7
      height: 12
      offsetX: 0
      offsetY: 1
      advance: 7
      channel: 0
    - index: 183
      x: 66
      y: 120
      width: 2
      height: 3
      offsetX: 1
      offsetY: 6
      advance: 4
      channel: 0
    - index: 184
      x: 62
      y: 120
      width: 3
      height: 3
      offsetX: 0
      offsetY: 11
      advance: 4
      channel: 0
    - index: 185
      x: 105
      y: 112
      width: 4
      height: 5
      offsetX: 0
      offsetY: 1
      advance: 4
      channel: 0
    - index: 186
      x: 89
      y: 113
      width: 5
      height: 5
      offsetX: 0
      offsetY: 1
      advance: 5
      channel: 0
    - index: 187
      x: 63
      y: 114
      width: 7
      height: 5
      offsetX: 0
      offsetY: 5
      advance: 7
      channel: 0
    - index: 188
      x: 27
      y: 41
      width: 11
      height: 10
      offsetX: 0
      offsetY: 1
      advance: 11
      channel: 0
    - index: 189
      x: 51
      y: 40
      width: 10
      height: 10
      offsetX: 0
      offsetY: 1
      advance: 11
      channel: 0
    - index: 190
      x: 39
      y: 40
      width: 11
      height: 10
      offsetX: 0
      offsetY: 1
      advance: 11
      channel: 0
    - index: 191
      x: 102
      y: 94
      width: 8
      height: 9
      offsetX: 0
      offsetY: 4
      advance: 8
      channel: 0
    - index: 192
      x: 113
      y: 14
      width: 9
      height: 12
      offsetX: 0
      offsetY: -1
      advance: 9
      channel: 0
    - index: 193
      x: 103
      y: 14
      width: 9
      height: 12
      offsetX: 0
      offsetY: -1
      advance: 9
      channel: 0
    - index: 194
      x: 93
      y: 14
      width: 9
      height: 12
      offsetX: 0
      offsetY: -1
      advance: 9
      channel: 0
    - index: 195
      x: 83
      y: 14
      width: 9
      height: 12
      offsetX: 0
      offsetY: -1
      advance: 9
      channel: 0
    - index: 196
      x: 64
      y: 27
      width: 9
      height: 11
      offsetX: 0
      offsetY: 0
      advance: 9
      channel: 0
    - index: 197
      x: 54
      y: 0
      width: 9
      height: 13
      offsetX: 0
      offsetY: -2
      advance: 9
      channel: 0
    - index: 198
      x: 112
      y: 27
      width: 13
      height: 10
      offsetX: 0
      offsetY: 1
      advance: 13
      channel: 0
    - index: 199
      x: 44
      y: 0
      width: 9
      height: 13
      offsetX: 0
      offsetY: 1
      advance: 9
      channel: 0
    - index: 200
      x: 36
      y: 27
      width: 8
      height: 12
      offsetX: 1
      offsetY: -1
      advance: 9
      channel: 0
    - index: 201
      x: 27
      y: 28
      width: 8
      height: 12
      offsetX: 1
      offsetY: -1
      advance: 9
      channel: 0
    - index: 202
      x: 18
      y: 28
      width: 8
      height: 12
      offsetX: 1
      offsetY: -1
      advance: 9
      channel: 0
    - index: 203
      x: 74
      y: 27
      width: 8
      height: 11
      offsetX: 1
      offsetY: 0
      advance: 9
      channel: 0
    - index: 204
      x: 123
      y: 14
      width: 3
      height: 12
      offsetX: 0
      offsetY: -1
      advance: 4
      channel: 0
    - index: 205
      x: 59
      y: 27
      width: 4
      height: 12
      offsetX: 0
      offsetY: -1
      advance: 4
      channel: 0
    - index: 206
      x: 53
      y: 27
      width: 5
      height: 12
      offsetX: -1
      offsetY: -1
      advance: 4
      channel: 0
    - index: 207
      x: 107
      y: 27
      width: 4
      height: 11
      offsetX: 0
      offsetY: 0
      advance: 4
      channel: 0
    - index: 208
      x: 0
      y: 52
      width: 9
      height: 10
      offsetX: 0
      offsetY: 1
      advance: 9
      channel: 0
    - index: 209
      x: 9
      y: 28
      width: 8
      height: 12
      offsetX: 1
      offsetY: -1
      advance: 9
      channel: 0
    - index: 210
      x: 33
      y: 0
      width: 10
      height: 13
      offsetX: 0
      offsetY: -1
      advance: 10
      channel: 0
    - index: 211
      x: 22
      y: 0
      width: 10
      height: 13
      offsetX: 0
      offsetY: -1
      advance: 10
      channel: 0
    - index: 212
      x: 11
      y: 0
      width: 10
      height: 13
      offsetX: 0
      offsetY: -1
      advance: 10
      channel: 0
    - index: 213
      x: 0
      y: 0
      width: 10
      height: 13
      offsetX: 0
      offsetY: -1
      advance: 10
      channel: 0
    - index: 214
      x: 51
      y: 14
      width: 10
      height: 12
      offsetX: 0
      offsetY: 0
      advance: 10
      channel: 0
    - index: 215
      x: 40
      y: 115
      width: 6
      height: 7
      offsetX: 1
      offsetY: 3
      advance: 8
      channel: 0
    - index: 216
      x: 40
      y: 14
      width: 10
      height: 12
      offsetX: 0
      offsetY: 0
      advance: 10
      channel: 0
    - index: 217
      x: 82
      y: 0
      width: 8
      height: 13
      offsetX: 1
      offsetY: -1
      advance: 9
      channel: 0
    - index: 218
      x: 73
      y: 0
      width: 8
      height: 13
      offsetX: 1
      offsetY: -1
      advance: 9
      channel: 0
    - index: 219
      x: 64
      y: 0
      width: 8
      height: 13
      offsetX: 1
      offsetY: -1
      advance: 9
      channel: 0
    - index: 220
      x: 0
      y: 28
      width: 8
      height: 12
      offsetX: 1
      offsetY: 0
      advance: 9
      channel: 0
    - index: 221
      x: 73
      y: 14
      width: 9
      height: 12
      offsetX: 0
      offsetY: -1
      advance: 9
      channel: 0
    - index: 222
      x: 59
      y: 51
      width: 8
      height: 10
      offsetX: 1
      offsetY: 1
      advance: 9
      channel: 0
    - index: 223
      x: 68
      y: 51
      width: 8
      height: 10
      offsetX: 1
      offsetY: 1
      advance: 9
      channel: 0
    - index: 224
      x: 0
      y: 85
      width: 7
      height: 10
      offsetX: 0
      offsetY: 1
      advance: 7
      channel: 0
    - index: 225
      x: 8
      y: 85
      width: 7
      height: 10
      offsetX: 0
      offsetY: 1
      advance: 7
      channel: 0
    - index: 226
      x: 16
      y: 85
      width: 7
      height: 10
      offsetX: 0
      offsetY: 1
      advance: 7
      channel: 0
    - index: 227
      x: 24
      y: 85
      width: 7
      height: 10
      offsetX: 0
      offsetY: 1
      advance: 7
      channel: 0
    - index: 228
      x: 32
      y: 85
      width: 7
      height: 10
      offsetX: 0
      offsetY: 1
      advance: 7
      channel: 0
    - index: 229
      x: 99
      y: 27
      width: 7
      height: 11
      offsetX: 0
      offsetY: 0
      advance: 7
      channel: 0
    - index: 230
      x: 19
      y: 107
      width: 12
      height: 7
      offsetX: 0
      offsetY: 4
      advance: 12
      channel: 0
    - index: 231
      x: 40
      y: 84
      width: 7
      height: 10
      offsetX: 0
      offsetY: 4
      advance: 7
      channel: 0
    - index: 232
      x: 48
      y: 95
      width: 7
      height: 10
      offsetX: 0
      offsetY: 1
      advance: 7
      channel: 0
    - index: 233
      x: 48
      y: 84
      width: 7
      height: 10
      offsetX: 0
      offsetY: 1
      advance: 7
      channel: 0
    - index: 234
      x: 56
      y: 84
      width: 7
      height: 10
      offsetX: 0
      offsetY: 1
      advance: 7
      channel: 0
    - index: 235
      x: 64
      y: 84
      width: 7
      height: 10
      offsetX: 0
      offsetY: 1
      advance: 7
      channel: 0
    - index: 236
      x: 122
      y: 49
      width: 4
      height: 10
      offsetX: 0
      offsetY: 1
      advance: 3
      channel: 0
    - index: 237
      x: 76
      y: 95
      width: 3
      height: 10
      offsetX: 1
      offsetY: 1
      advance: 3
      channel: 0
    - index: 238
      x: 71
      y: 95
      width: 4
      height: 10
      offsetX: 0
      offsetY: 1
      advance: 3
      channel: 0
    - index: 239
      x: 61
      y: 95
      width: 4
      height: 10
      offsetX: 0
      offsetY: 1
      advance: 3
      channel: 0
    - index: 240
      x: 72
      y: 84
      width: 7
      height: 10
      offsetX: 0
      offsetY: 1
      advance: 7
      channel: 0
    - index: 241
      x: 80
      y: 83
      width: 7
      height: 10
      offsetX: 0
      offsetY: 1
      advance: 7
      channel: 0
    - index: 242
      x: 88
      y: 83
      width: 7
      height: 10
      offsetX: 0
      offsetY: 1
      advance: 7
      channel: 0
    - index: 243
      x: 96
      y: 83
      width: 7
      height: 10
      offsetX: 0
      offsetY: 1
      advance: 7
      channel: 0
    - index: 244
      x: 104
      y: 83
      width: 7
      height: 10
      offsetX: 0
      offsetY: 1
      advance: 7
      channel: 0
    - index: 245
      x: 112
      y: 83
      width: 7
      height: 10
      offsetX: 0
      offsetY: 1
      advance: 7
      channel: 0
    - index: 246
      x: 0
      y: 96
      width: 7
      height: 10
      offsetX: 0
      offsetY: 1
      advance: 7
      channel: 0
    - index: 247
      x: 113
      y: 104
      width: 7
      height: 7
      offsetX: 0
      offsetY: 3
      advance: 7
      channel: 0
    - index: 248
      x: 111
      y: 94
      width: 7
      height: 9
      offsetX: 0
      offsetY: 3
      advance: 7
      channel: 0
    - index: 249
      x: 8
      y: 96
      width: 7
      height: 10
      offsetX: 0
      offsetY: 1
      advance: 7
      channel: 0
    - index: 250
      x: 16
      y: 96
      width: 7
      height: 10
      offsetX: 0
      offsetY: 1
      advance: 7
      channel: 0
    - index: 251
      x: 24
      y: 96
      width: 7
      height: 10
      offsetX: 0
      offsetY: 1
      advance: 7
      channel: 0
    - index: 252
      x: 32
      y: 96
      width: 7
      height: 10
      offsetX: 0
      offsetY: 1
      advance: 7
      channel: 0
    - index: 253
      x: 91
      y: 0
      width: 7
      height: 13
      offsetX: 0
      offsetY: 1
      advance: 7
      channel: 0
    - index: 254
      x: 99
      y: 0
      width: 7
      height: 13
      offsetX: 0
      offsetY: 1
      advance: 7
      channel: 0
    - index: 255
      x: 107
      y: 0
      width: 7
      height: 13
      offsetX: 0
      offsetY: 1
      advance: 7
      channel: 0
    mSymbols: []
  mSpacingX: 0
  mSpacingY: 0
  mAtlas: {fileID: 11400000, guid: 62adb30369acbf943a67cee0f69267a3, type: 2}
  mReplacement: {fileID: 0}
--- !u!1002 &11400001
EditorExtensionImpl:
  serializedVersion: 6
--- !u!1001 &100100000
Prefab:
  m_ObjectHideFlags: 1
  serializedVersion: 2
  m_Modification:
    m_TransformParent: {fileID: 0}
    m_Modifications: []
    m_RemovedComponents: []
  m_ParentPrefab: {fileID: 0}
  m_RootGameObject: {fileID: 100000}
  m_IsPrefabParent: 1
--- !u!1002 &100100001
EditorExtensionImpl:
  serializedVersion: 6
