%YAML 1.1
%TAG !u! tag:unity3d.com,2011:
--- !u!1 &100000
GameObject:
  m_ObjectHideFlags: 0
  m_PrefabParentObject: {fileID: 0}
  m_PrefabInternal: {fileID: 100100000}
  serializedVersion: 4
  m_Component:
  - 4: {fileID: 400000}
  - 114: {fileID: 11400000}
  m_Layer: 8
  m_Name: Refractive Font - Header
  m_TagString: Untagged
  m_Icon: {fileID: 0}
  m_NavMeshLayer: 0
  m_StaticEditorFlags: 0
  m_IsActive: 1
--- !u!1002 &100001
EditorExtensionImpl:
  serializedVersion: 6
--- !u!4 &400000
Transform:
  m_ObjectHideFlags: 1
  m_PrefabParentObject: {fileID: 0}
  m_PrefabInternal: {fileID: 100100000}
  m_GameObject: {fileID: 100000}
  m_LocalRotation: {x: 0, y: 0, z: 0, w: 1}
  m_LocalPosition: {x: 0, y: 0, z: 0}
  m_LocalScale: {x: 1, y: 1, z: 1}
  m_Children: []
  m_Father: {fileID: 0}
  m_RootOrder: 0
--- !u!1002 &400001
EditorExtensionImpl:
  serializedVersion: 6
--- !u!114 &11400000
MonoBehaviour:
  m_ObjectHideFlags: 1
  m_PrefabParentObject: {fileID: 0}
  m_PrefabInternal: {fileID: 100100000}
  m_GameObject: {fileID: 100000}
  m_Enabled: 1
  m_EditorHideFlags: 0
  m_Script: {fileID: 11500000, guid: 0b4eb3a400afab046abb8471a9d746d6, type: 3}
  m_Name: 
  m_EditorClassIdentifier: 
  mMat: {fileID: 2100000, guid: e76d0bdab6849b94aa507497bbb96687, type: 2}
  mUVRect:
    serializedVersion: 2
    x: 0
    y: 0
    width: 0.5
    height: 1
  mFont:
    mGlyphs:
    - index: 0
      x: 0
      y: 0
      width: 0
      height: 0
      offsetX: 0
      offsetY: 0
      advance: 0
      channel: 0
    - index: 0
      x: 0
      y: 0
      width: 0
      height: 0
      offsetX: 0
      offsetY: 0
      advance: 0
      channel: 0
    - index: 0
      x: 0
      y: 0
      width: 0
      height: 0
      offsetX: 0
      offsetY: 0
      advance: 0
      channel: 0
    - index: 0
      x: 0
      y: 0
      width: 0
      height: 0
      offsetX: 0
      offsetY: 0
      advance: 0
      channel: 0
    - index: 0
      x: 0
      y: 0
      width: 0
      height: 0
      offsetX: 0
      offsetY: 0
      advance: 0
      channel: 0
    - index: 0
      x: 0
      y: 0
      width: 0
      height: 0
      offsetX: 0
      offsetY: 0
      advance: 0
      channel: 0
    - index: 0
      x: 0
      y: 0
      width: 0
      height: 0
      offsetX: 0
      offsetY: 0
      advance: 0
      channel: 0
    - index: 0
      x: 0
      y: 0
      width: 0
      height: 0
      offsetX: 0
      offsetY: 0
      advance: 0
      channel: 0
    - index: 0
      x: 0
      y: 0
      width: 0
      height: 0
      offsetX: 0
      offsetY: 0
      advance: 0
      channel: 0
    - index: 0
      x: 0
      y: 0
      width: 0
      height: 0
      offsetX: 0
      offsetY: 0
      advance: 0
      channel: 0
    - index: 0
      x: 0
      y: 0
      width: 0
      height: 0
      offsetX: 0
      offsetY: 0
      advance: 0
      channel: 0
    - index: 0
      x: 0
      y: 0
      width: 0
      height: 0
      offsetX: 0
      offsetY: 0
      advance: 0
      channel: 0
    - index: 0
      x: 0
      y: 0
      width: 0
      height: 0
      offsetX: 0
      offsetY: 0
      advance: 0
      channel: 0
    - index: 0
      x: 0
      y: 0
      width: 0
      height: 0
      offsetX: 0
      offsetY: 0
      advance: 0
      channel: 0
    - index: 0
      x: 0
      y: 0
      width: 0
      height: 0
      offsetX: 0
      offsetY: 0
      advance: 0
      channel: 0
    - index: 0
      x: 0
      y: 0
      width: 0
      height: 0
      offsetX: 0
      offsetY: 0
      advance: 0
      channel: 0
    - index: 0
      x: 0
      y: 0
      width: 0
      height: 0
      offsetX: 0
      offsetY: 0
      advance: 0
      channel: 0
    - index: 0
      x: 0
      y: 0
      width: 0
      height: 0
      offsetX: 0
      offsetY: 0
      advance: 0
      channel: 0
    - index: 0
      x: 0
      y: 0
      width: 0
      height: 0
      offsetX: 0
      offsetY: 0
      advance: 0
      channel: 0
    - index: 0
      x: 0
      y: 0
      width: 0
      height: 0
      offsetX: 0
      offsetY: 0
      advance: 0
      channel: 0
    - index: 0
      x: 0
      y: 0
      width: 0
      height: 0
      offsetX: 0
      offsetY: 0
      advance: 0
      channel: 0
    - index: 0
      x: 0
      y: 0
      width: 0
      height: 0
      offsetX: 0
      offsetY: 0
      advance: 0
      channel: 0
    - index: 0
      x: 0
      y: 0
      width: 0
      height: 0
      offsetX: 0
      offsetY: 0
      advance: 0
      channel: 0
    - index: 0
      x: 0
      y: 0
      width: 0
      height: 0
      offsetX: 0
      offsetY: 0
      advance: 0
      channel: 0
    - index: 0
      x: 0
      y: 0
      width: 0
      height: 0
      offsetX: 0
      offsetY: 0
      advance: 0
      channel: 0
    - index: 0
      x: 0
      y: 0
      width: 0
      height: 0
      offsetX: 0
      offsetY: 0
      advance: 0
      channel: 0
    - index: 0
      x: 0
      y: 0
      width: 0
      height: 0
      offsetX: 0
      offsetY: 0
      advance: 0
      channel: 0
    - index: 0
      x: 0
      y: 0
      width: 0
      height: 0
      offsetX: 0
      offsetY: 0
      advance: 0
      channel: 0
    - index: 0
      x: 0
      y: 0
      width: 0
      height: 0
      offsetX: 0
      offsetY: 0
      advance: 0
      channel: 0
    - index: 0
      x: 0
      y: 0
      width: 0
      height: 0
      offsetX: 0
      offsetY: 0
      advance: 0
      channel: 0
    - index: 0
      x: 0
      y: 0
      width: 0
      height: 0
      offsetX: 0
      offsetY: 0
      advance: 0
      channel: 0
    - index: 0
      x: 0
      y: 0
      width: 0
      height: 0
      offsetX: 0
      offsetY: 0
      advance: 0
      channel: 0
    - index: 0
      x: 244
      y: 425
      width: 7
      height: 7
      offsetX: -3
      offsetY: 18
      advance: 9
      channel: 0
    - index: 0
      x: 240
      y: 203
      width: 10
      height: 21
      offsetX: -2
      offsetY: 3
      advance: 7
      channel: 0
    - index: 0
      x: 14
      y: 453
      width: 16
      height: 13
      offsetX: -2
      offsetY: 2
      advance: 12
      channel: 0
    - index: 0
      x: 108
      y: 429
      width: 23
      height: 18
      offsetX: -3
      offsetY: 6
      advance: 16
      channel: 0
    - index: 0
      x: 202
      y: 149
      width: 24
      height: 25
      offsetX: -2
      offsetY: 1
      advance: 21
      channel: 0
    - index: 0
      x: 180
      y: 203
      width: 26
      height: 21
      offsetX: -3
      offsetY: 3
      advance: 20
      channel: 0
    - index: 0
      x: 118
      y: 309
      width: 29
      height: 20
      offsetX: -2
      offsetY: 4
      advance: 24
      channel: 0
    - index: 0
      x: 48
      y: 453
      width: 10
      height: 13
      offsetX: -2
      offsetY: 2
      advance: 7
      channel: 0
    - index: 0
      x: 45
      y: 180
      width: 13
      height: 25
      offsetX: -2
      offsetY: 1
      advance: 9
      channel: 0
    - index: 0
      x: 28
      y: 180
      width: 13
      height: 25
      offsetX: -2
      offsetY: 1
      advance: 9
      channel: 0
    - index: 0
      x: 223
      y: 429
      width: 17
      height: 14
      offsetX: -3
      offsetY: 3
      advance: 11
      channel: 0
    - index: 0
      x: 158
      y: 429
      width: 18
      height: 17
      offsetX: -3
      offsetY: 5
      advance: 12
      channel: 0
    - index: 0
      x: 34
      y: 453
      width: 10
      height: 13
      offsetX: -2
      offsetY: 16
      advance: 7
      channel: 0
    - index: 0
      x: 165
      y: 450
      width: 18
      height: 9
      offsetX: -2
      offsetY: 9
      advance: 14
      channel: 0
    - index: 0
      x: 206
      y: 448
      width: 10
      height: 9
      offsetX: -2
      offsetY: 16
      advance: 6
      channel: 0
    - index: 0
      x: 87
      y: 234
      width: 25
      height: 21
      offsetX: -3
      offsetY: 3
      advance: 19
      channel: 0
    - index: 0
      x: 29
      y: 405
      width: 25
      height: 20
      offsetX: -2
      offsetY: 4
      advance: 21
      channel: 0
    - index: 0
      x: 196
      y: 278
      width: 14
      height: 21
      offsetX: -4
      offsetY: 3
      advance: 9
      channel: 0
    - index: 0
      x: 58
      y: 405
      width: 25
      height: 20
      offsetX: -2
      offsetY: 4
      advance: 21
      channel: 0
    - index: 0
      x: 28
      y: 429
      width: 24
      height: 20
      offsetX: -2
      offsetY: 4
      advance: 21
      channel: 0
    - index: 0
      x: 145
      y: 230
      width: 25
      height: 21
      offsetX: -3
      offsetY: 3
      advance: 20
      channel: 0
    - index: 0
      x: 0
      y: 405
      width: 25
      height: 20
      offsetX: -2
      offsetY: 4
      advance: 21
      channel: 0
    - index: 0
      x: 87
      y: 405
      width: 25
      height: 20
      offsetX: -2
      offsetY: 4
      advance: 21
      channel: 0
    - index: 0
      x: 181
      y: 305
      width: 26
      height: 20
      offsetX: -3
      offsetY: 4
      advance: 20
      channel: 0
    - index: 0
      x: 116
      y: 405
      width: 25
      height: 20
      offsetX: -2
      offsetY: 4
      advance: 21
      channel: 0
    - index: 0
      x: 120
      y: 333
      width: 25
      height: 20
      offsetX: -2
      offsetY: 4
      advance: 21
      channel: 0
    - index: 0
      x: 0
      y: 453
      width: 10
      height: 14
      offsetX: -2
      offsetY: 7
      advance: 6
      channel: 0
    - index: 0
      x: 241
      y: 303
      width: 10
      height: 18
      offsetX: -2
      offsetY: 10
      advance: 7
      channel: 0
    - index: 0
      x: 232
      y: 253
      width: 17
      height: 21
      offsetX: -3
      offsetY: 3
      advance: 12
      channel: 0
    - index: 0
      x: 180
      y: 429
      width: 18
      height: 15
      offsetX: -2
      offsetY: 6
      advance: 14
      channel: 0
    - index: 0
      x: 232
      y: 228
      width: 17
      height: 21
      offsetX: -2
      offsetY: 3
      advance: 12
      channel: 0
    - index: 0
      x: 82
      y: 429
      width: 22
      height: 20
      offsetX: -2
      offsetY: 4
      advance: 18
      channel: 0
    - index: 0
      x: 149
      y: 333
      width: 25
      height: 20
      offsetX: -1
      offsetY: 4
      advance: 22
      channel: 0
    - index: 0
      x: 192
      y: 178
      width: 26
      height: 21
      offsetX: -3
      offsetY: 3
      advance: 19
      channel: 0
    - index: 0
      x: 178
      y: 329
      width: 25
      height: 20
      offsetX: -2
      offsetY: 4
      advance: 21
      channel: 0
    - index: 0
      x: 0
      y: 429
      width: 24
      height: 20
      offsetX: -1
      offsetY: 4
      advance: 21
      channel: 0
    - index: 0
      x: 207
      y: 329
      width: 25
      height: 20
      offsetX: -1
      offsetY: 4
      advance: 21
      channel: 0
    - index: 0
      x: 0
      y: 357
      width: 25
      height: 20
      offsetX: -1
      offsetY: 4
      advance: 21
      channel: 0
    - index: 0
      x: 29
      y: 357
      width: 25
      height: 20
      offsetX: -1
      offsetY: 4
      advance: 20
      channel: 0
    - index: 0
      x: 58
      y: 357
      width: 25
      height: 20
      offsetX: -2
      offsetY: 4
      advance: 21
      channel: 0
    - index: 0
      x: 116
      y: 255
      width: 25
      height: 21
      offsetX: -2
      offsetY: 3
      advance: 21
      channel: 0
    - index: 0
      x: 214
      y: 278
      width: 10
      height: 21
      offsetX: -2
      offsetY: 3
      advance: 7
      channel: 0
    - index: 0
      x: 142
      y: 280
      width: 23
      height: 21
      offsetX: -3
      offsetY: 3
      advance: 19
      channel: 0
    - index: 0
      x: 29
      y: 234
      width: 25
      height: 21
      offsetX: -2
      offsetY: 3
      advance: 21
      channel: 0
    - index: 0
      x: 114
      y: 284
      width: 24
      height: 21
      offsetX: -1
      offsetY: 3
      advance: 20
      channel: 0
    - index: 0
      x: 145
      y: 255
      width: 25
      height: 21
      offsetX: -2
      offsetY: 3
      advance: 21
      channel: 0
    - index: 0
      x: 174
      y: 253
      width: 25
      height: 21
      offsetX: -2
      offsetY: 3
      advance: 21
      channel: 0
    - index: 0
      x: 87
      y: 357
      width: 25
      height: 20
      offsetX: -2
      offsetY: 4
      advance: 21
      channel: 0
    - index: 0
      x: 116
      y: 357
      width: 25
      height: 20
      offsetX: -2
      offsetY: 4
      advance: 21
      channel: 0
    - index: 0
      x: 62
      y: 179
      width: 25
      height: 22
      offsetX: -2
      offsetY: 4
      advance: 21
      channel: 0
    - index: 0
      x: 60
      y: 333
      width: 26
      height: 20
      offsetX: -2
      offsetY: 4
      advance: 21
      channel: 0
    - index: 0
      x: 145
      y: 357
      width: 25
      height: 20
      offsetX: -2
      offsetY: 4
      advance: 21
      channel: 0
    - index: 0
      x: 201
      y: 405
      width: 24
      height: 20
      offsetX: -2
      offsetY: 4
      advance: 19
      channel: 0
    - index: 0
      x: 29
      y: 284
      width: 25
      height: 21
      offsetX: -2
      offsetY: 3
      advance: 21
      channel: 0
    - index: 0
      x: 222
      y: 178
      width: 26
      height: 21
      offsetX: -3
      offsetY: 3
      advance: 19
      channel: 0
    - index: 0
      x: 0
      y: 234
      width: 25
      height: 21
      offsetX: -3
      offsetY: 3
      advance: 19
      channel: 0
    - index: 0
      x: 30
      y: 209
      width: 26
      height: 21
      offsetX: -3
      offsetY: 3
      advance: 20
      channel: 0
    - index: 0
      x: 150
      y: 203
      width: 26
      height: 21
      offsetX: -3
      offsetY: 3
      advance: 19
      channel: 0
    - index: 0
      x: 30
      y: 333
      width: 26
      height: 20
      offsetX: -3
      offsetY: 4
      advance: 20
      channel: 0
    - index: 0
      x: 109
      y: 120
      width: 11
      height: 26
      offsetX: -1
      offsetY: 1
      advance: 9
      channel: 0
    - index: 0
      x: 58
      y: 234
      width: 25
      height: 21
      offsetX: -3
      offsetY: 3
      advance: 19
      channel: 0
    - index: 0
      x: 124
      y: 120
      width: 11
      height: 26
      offsetX: -1
      offsetY: 1
      advance: 9
      channel: 0
    - index: 0
      x: 62
      y: 453
      width: 22
      height: 12
      offsetX: -3
      offsetY: 0
      advance: 16
      channel: 0
    - index: 0
      x: 139
      y: 451
      width: 22
      height: 9
      offsetX: -2
      offsetY: 21
      advance: 18
      channel: 0
    - index: 0
      x: 122
      y: 451
      width: 13
      height: 11
      offsetX: -3
      offsetY: -2
      advance: 7
      channel: 0
    - index: 0
      x: 90
      y: 205
      width: 26
      height: 21
      offsetX: -3
      offsetY: 3
      advance: 19
      channel: 0
    - index: 0
      x: 174
      y: 357
      width: 25
      height: 20
      offsetX: -2
      offsetY: 4
      advance: 21
      channel: 0
    - index: 0
      x: 173
      y: 405
      width: 24
      height: 20
      offsetX: -1
      offsetY: 4
      advance: 21
      channel: 0
    - index: 0
      x: 0
      y: 381
      width: 25
      height: 20
      offsetX: -1
      offsetY: 4
      advance: 21
      channel: 0
    - index: 0
      x: 29
      y: 381
      width: 25
      height: 20
      offsetX: -1
      offsetY: 4
      advance: 21
      channel: 0
    - index: 0
      x: 58
      y: 381
      width: 25
      height: 20
      offsetX: -1
      offsetY: 4
      advance: 20
      channel: 0
    - index: 0
      x: 87
      y: 381
      width: 25
      height: 20
      offsetX: -2
      offsetY: 4
      advance: 21
      channel: 0
    - index: 0
      x: 87
      y: 259
      width: 25
      height: 21
      offsetX: -2
      offsetY: 3
      advance: 21
      channel: 0
    - index: 0
      x: 228
      y: 278
      width: 10
      height: 21
      offsetX: -2
      offsetY: 3
      advance: 7
      channel: 0
    - index: 0
      x: 169
      y: 280
      width: 23
      height: 21
      offsetX: -3
      offsetY: 3
      advance: 19
      channel: 0
    - index: 0
      x: 203
      y: 253
      width: 25
      height: 21
      offsetX: -2
      offsetY: 3
      advance: 21
      channel: 0
    - index: 0
      x: 86
      y: 284
      width: 24
      height: 21
      offsetX: -1
      offsetY: 3
      advance: 20
      channel: 0
    - index: 0
      x: 174
      y: 228
      width: 25
      height: 21
      offsetX: -2
      offsetY: 3
      advance: 21
      channel: 0
    - index: 0
      x: 58
      y: 259
      width: 25
      height: 21
      offsetX: -2
      offsetY: 3
      advance: 21
      channel: 0
    - index: 0
      x: 116
      y: 381
      width: 25
      height: 20
      offsetX: -2
      offsetY: 4
      advance: 21
      channel: 0
    - index: 0
      x: 174
      y: 381
      width: 25
      height: 20
      offsetX: -2
      offsetY: 4
      advance: 21
      channel: 0
    - index: 0
      x: 91
      y: 179
      width: 25
      height: 22
      offsetX: -2
      offsetY: 4
      advance: 21
      channel: 0
    - index: 0
      x: 90
      y: 333
      width: 26
      height: 20
      offsetX: -2
      offsetY: 4
      advance: 21
      channel: 0
    - index: 0
      x: 203
      y: 377
      width: 25
      height: 20
      offsetX: -2
      offsetY: 4
      advance: 21
      channel: 0
    - index: 0
      x: 145
      y: 405
      width: 24
      height: 20
      offsetX: -2
      offsetY: 4
      advance: 19
      channel: 0
    - index: 0
      x: 116
      y: 230
      width: 25
      height: 21
      offsetX: -2
      offsetY: 3
      advance: 21
      channel: 0
    - index: 0
      x: 60
      y: 209
      width: 26
      height: 21
      offsetX: -3
      offsetY: 3
      advance: 19
      channel: 0
    - index: 0
      x: 203
      y: 228
      width: 25
      height: 21
      offsetX: -3
      offsetY: 3
      advance: 19
      channel: 0
    - index: 0
      x: 120
      y: 205
      width: 26
      height: 21
      offsetX: -3
      offsetY: 3
      advance: 20
      channel: 0
    - index: 0
      x: 210
      y: 203
      width: 26
      height: 21
      offsetX: -3
      offsetY: 3
      advance: 19
      channel: 0
    - index: 0
      x: 0
      y: 333
      width: 26
      height: 20
      offsetX: -3
      offsetY: 4
      advance: 20
      channel: 0
    - index: 0
      x: 0
      y: 209
      width: 26
      height: 21
      offsetX: -3
      offsetY: 3
      advance: 19
      channel: 0
    - index: 0
      x: 0
      y: 0
      width: 10
      height: 27
      offsetX: -1
      offsetY: 1
      advance: 7
      channel: 0
    - index: 0
      x: 29
      y: 259
      width: 25
      height: 21
      offsetX: -3
      offsetY: 3
      advance: 19
      channel: 0
    - index: 0
      x: 147
      y: 178
      width: 41
      height: 21
      offsetX: -2
      offsetY: 3
      advance: 38
      channel: 0
    - index: 0
      x: 0
      y: 0
      width: 0
      height: 0
      offsetX: 0
      offsetY: 0
      advance: 0
      channel: 0
    - index: 0
      x: 0
      y: 0
      width: 0
      height: 0
      offsetX: 0
      offsetY: 0
      advance: 0
      channel: 0
    - index: 0
      x: 0
      y: 0
      width: 0
      height: 0
      offsetX: 0
      offsetY: 0
      advance: 0
      channel: 0
    - index: 0
      x: 0
      y: 0
      width: 0
      height: 0
      offsetX: 0
      offsetY: 0
      advance: 0
      channel: 0
    - index: 0
      x: 0
      y: 0
      width: 0
      height: 0
      offsetX: 0
      offsetY: 0
      advance: 0
      channel: 0
    - index: 0
      x: 0
      y: 0
      width: 0
      height: 0
      offsetX: 0
      offsetY: 0
      advance: 0
      channel: 0
    - index: 0
      x: 0
      y: 0
      width: 0
      height: 0
      offsetX: 0
      offsetY: 0
      advance: 0
      channel: 0
    - index: 0
      x: 0
      y: 0
      width: 0
      height: 0
      offsetX: 0
      offsetY: 0
      advance: 0
      channel: 0
    - index: 0
      x: 0
      y: 0
      width: 0
      height: 0
      offsetX: 0
      offsetY: 0
      advance: 0
      channel: 0
    - index: 0
      x: 0
      y: 0
      width: 0
      height: 0
      offsetX: 0
      offsetY: 0
      advance: 0
      channel: 0
    - index: 0
      x: 0
      y: 0
      width: 0
      height: 0
      offsetX: 0
      offsetY: 0
      advance: 0
      channel: 0
    - index: 0
      x: 0
      y: 0
      width: 0
      height: 0
      offsetX: 0
      offsetY: 0
      advance: 0
      channel: 0
    - index: 0
      x: 0
      y: 0
      width: 0
      height: 0
      offsetX: 0
      offsetY: 0
      advance: 0
      channel: 0
    - index: 0
      x: 0
      y: 0
      width: 0
      height: 0
      offsetX: 0
      offsetY: 0
      advance: 0
      channel: 0
    - index: 0
      x: 0
      y: 0
      width: 0
      height: 0
      offsetX: 0
      offsetY: 0
      advance: 0
      channel: 0
    - index: 0
      x: 0
      y: 0
      width: 0
      height: 0
      offsetX: 0
      offsetY: 0
      advance: 0
      channel: 0
    - index: 0
      x: 0
      y: 0
      width: 0
      height: 0
      offsetX: 0
      offsetY: 0
      advance: 0
      channel: 0
    - index: 0
      x: 0
      y: 0
      width: 0
      height: 0
      offsetX: 0
      offsetY: 0
      advance: 0
      channel: 0
    - index: 0
      x: 0
      y: 0
      width: 0
      height: 0
      offsetX: 0
      offsetY: 0
      advance: 0
      channel: 0
    - index: 0
      x: 0
      y: 0
      width: 0
      height: 0
      offsetX: 0
      offsetY: 0
      advance: 0
      channel: 0
    - index: 0
      x: 0
      y: 0
      width: 0
      height: 0
      offsetX: 0
      offsetY: 0
      advance: 0
      channel: 0
    - index: 0
      x: 0
      y: 0
      width: 0
      height: 0
      offsetX: 0
      offsetY: 0
      advance: 0
      channel: 0
    - index: 0
      x: 0
      y: 0
      width: 0
      height: 0
      offsetX: 0
      offsetY: 0
      advance: 0
      channel: 0
    - index: 0
      x: 0
      y: 0
      width: 0
      height: 0
      offsetX: 0
      offsetY: 0
      advance: 0
      channel: 0
    - index: 0
      x: 0
      y: 0
      width: 0
      height: 0
      offsetX: 0
      offsetY: 0
      advance: 0
      channel: 0
    - index: 0
      x: 0
      y: 0
      width: 0
      height: 0
      offsetX: 0
      offsetY: 0
      advance: 0
      channel: 0
    - index: 0
      x: 0
      y: 0
      width: 0
      height: 0
      offsetX: 0
      offsetY: 0
      advance: 0
      channel: 0
    - index: 0
      x: 0
      y: 0
      width: 0
      height: 0
      offsetX: 0
      offsetY: 0
      advance: 0
      channel: 0
    - index: 0
      x: 0
      y: 0
      width: 0
      height: 0
      offsetX: 0
      offsetY: 0
      advance: 0
      channel: 0
    - index: 0
      x: 0
      y: 0
      width: 0
      height: 0
      offsetX: 0
      offsetY: 0
      advance: 0
      channel: 0
    - index: 0
      x: 0
      y: 0
      width: 0
      height: 0
      offsetX: 0
      offsetY: 0
      advance: 0
      channel: 0
    - index: 0
      x: 0
      y: 0
      width: 0
      height: 0
      offsetX: 0
      offsetY: 0
      advance: 0
      channel: 0
    - index: 0
      x: 0
      y: 0
      width: 0
      height: 0
      offsetX: 0
      offsetY: 0
      advance: 0
      channel: 0
    - index: 0
      x: 220
      y: 448
      width: 7
      height: 7
      offsetX: -3
      offsetY: 18
      advance: 9
      channel: 0
    - index: 0
      x: 242
      y: 278
      width: 10
      height: 21
      offsetX: -2
      offsetY: 3
      advance: 7
      channel: 0
    - index: 0
      x: 232
      y: 353
      width: 18
      height: 19
      offsetX: -2
      offsetY: 1
      advance: 13
      channel: 0
    - index: 0
      x: 229
      y: 401
      width: 23
      height: 20
      offsetX: -1
      offsetY: 4
      advance: 19
      channel: 0
    - index: 0
      x: 0
      y: 0
      width: 0
      height: 0
      offsetX: 0
      offsetY: 0
      advance: 0
      channel: 0
    - index: 0
      x: 58
      y: 284
      width: 24
      height: 21
      offsetX: -2
      offsetY: 3
      advance: 20
      channel: 0
    - index: 0
      x: 0
      y: 0
      width: 0
      height: 0
      offsetX: 0
      offsetY: 0
      advance: 0
      channel: 0
    - index: 0
      x: 0
      y: 0
      width: 0
      height: 0
      offsetX: 0
      offsetY: 0
      advance: 0
      channel: 0
    - index: 0
      x: 187
      y: 448
      width: 15
      height: 9
      offsetX: -2
      offsetY: -1
      advance: 11
      channel: 0
    - index: 0
      x: 120
      y: 179
      width: 23
      height: 22
      offsetX: -1
      offsetY: 3
      advance: 21
      channel: 0
    - index: 0
      x: 0
      y: 0
      width: 0
      height: 0
      offsetX: 0
      offsetY: 0
      advance: 0
      channel: 0
    - index: 0
      x: 232
      y: 376
      width: 20
      height: 18
      offsetX: -3
      offsetY: 6
      advance: 15
      channel: 0
    - index: 0
      x: 0
      y: 0
      width: 0
      height: 0
      offsetX: 0
      offsetY: 0
      advance: 0
      channel: 0
    - index: 0
      x: 0
      y: 0
      width: 0
      height: 0
      offsetX: 0
      offsetY: 0
      advance: 0
      channel: 0
    - index: 0
      x: 202
      y: 429
      width: 17
      height: 15
      offsetX: 2
      offsetY: 3
      advance: 21
      channel: 0
    - index: 0
      x: 0
      y: 0
      width: 0
      height: 0
      offsetX: 0
      offsetY: 0
      advance: 0
      channel: 0
    - index: 0
      x: 236
      y: 327
      width: 15
      height: 15
      offsetX: -2
      offsetY: 0
      advance: 11
      channel: 0
    - index: 0
      x: 0
      y: 0
      width: 0
      height: 0
      offsetX: 0
      offsetY: 0
      advance: 0
      channel: 0
    - index: 0
      x: 0
      y: 0
      width: 0
      height: 0
      offsetX: 0
      offsetY: 0
      advance: 0
      channel: 0
    - index: 0
      x: 0
      y: 0
      width: 0
      height: 0
      offsetX: 0
      offsetY: 0
      advance: 0
      channel: 0
    - index: 0
      x: 105
      y: 453
      width: 13
      height: 11
      offsetX: -3
      offsetY: -2
      advance: 7
      channel: 0
    - index: 0
      x: 0
      y: 0
      width: 0
      height: 0
      offsetX: 0
      offsetY: 0
      advance: 0
      channel: 0
    - index: 0
      x: 0
      y: 0
      width: 0
      height: 0
      offsetX: 0
      offsetY: 0
      advance: 0
      channel: 0
    - index: 0
      x: 0
      y: 0
      width: 0
      height: 0
      offsetX: 0
      offsetY: 0
      advance: 0
      channel: 0
    - index: 0
      x: 88
      y: 453
      width: 13
      height: 12
      offsetX: -3
      offsetY: 17
      advance: 7
      channel: 0
    - index: 0
      x: 0
      y: 0
      width: 0
      height: 0
      offsetX: 0
      offsetY: 0
      advance: 0
      channel: 0
    - index: 0
      x: 0
      y: 0
      width: 0
      height: 0
      offsetX: 0
      offsetY: 0
      advance: 0
      channel: 0
    - index: 0
      x: 135
      y: 429
      width: 19
      height: 18
      offsetX: -2
      offsetY: 6
      advance: 15
      channel: 0
    - index: 0
      x: 0
      y: 0
      width: 0
      height: 0
      offsetX: 0
      offsetY: 0
      advance: 0
      channel: 0
    - index: 0
      x: 0
      y: 0
      width: 0
      height: 0
      offsetX: 0
      offsetY: 0
      advance: 0
      channel: 0
    - index: 0
      x: 0
      y: 0
      width: 0
      height: 0
      offsetX: 0
      offsetY: 0
      advance: 0
      channel: 0
    - index: 0
      x: 56
      y: 429
      width: 22
      height: 20
      offsetX: -2
      offsetY: 4
      advance: 18
      channel: 0
    - index: 0
      x: 14
      y: 0
      width: 26
      height: 26
      offsetX: -3
      offsetY: -2
      advance: 19
      channel: 0
    - index: 0
      x: 44
      y: 0
      width: 26
      height: 26
      offsetX: -3
      offsetY: -2
      advance: 19
      channel: 0
    - index: 0
      x: 164
      y: 0
      width: 26
      height: 26
      offsetX: -3
      offsetY: -2
      advance: 19
      channel: 0
    - index: 0
      x: 60
      y: 30
      width: 26
      height: 26
      offsetX: -3
      offsetY: -2
      advance: 19
      channel: 0
    - index: 0
      x: 169
      y: 120
      width: 26
      height: 25
      offsetX: -3
      offsetY: -1
      advance: 19
      channel: 0
    - index: 0
      x: 194
      y: 0
      width: 26
      height: 26
      offsetX: -3
      offsetY: -2
      advance: 19
      channel: 0
    - index: 0
      x: 83
      y: 309
      width: 31
      height: 20
      offsetX: -3
      offsetY: 4
      advance: 26
      channel: 0
    - index: 0
      x: 174
      y: 149
      width: 24
      height: 25
      offsetX: -1
      offsetY: 4
      advance: 21
      channel: 0
    - index: 0
      x: 0
      y: 91
      width: 25
      height: 26
      offsetX: -1
      offsetY: -2
      advance: 21
      channel: 0
    - index: 0
      x: 0
      y: 61
      width: 25
      height: 26
      offsetX: -1
      offsetY: -2
      advance: 21
      channel: 0
    - index: 0
      x: 116
      y: 90
      width: 25
      height: 26
      offsetX: -1
      offsetY: -2
      advance: 21
      channel: 0
    - index: 0
      x: 29
      y: 151
      width: 25
      height: 25
      offsetX: -1
      offsetY: -1
      advance: 21
      channel: 0
    - index: 0
      x: 232
      y: 90
      width: 13
      height: 26
      offsetX: -4
      offsetY: -2
      advance: 7
      channel: 0
    - index: 0
      x: 75
      y: 120
      width: 13
      height: 26
      offsetX: -2
      offsetY: -2
      advance: 7
      channel: 0
    - index: 0
      x: 232
      y: 60
      width: 16
      height: 26
      offsetX: -5
      offsetY: -2
      advance: 7
      channel: 0
    - index: 0
      x: 229
      y: 120
      width: 15
      height: 25
      offsetX: -4
      offsetY: -1
      advance: 7
      channel: 0
    - index: 0
      x: 151
      y: 305
      width: 26
      height: 20
      offsetX: -3
      offsetY: 4
      advance: 21
      channel: 0
    - index: 0
      x: 116
      y: 60
      width: 25
      height: 26
      offsetX: -2
      offsetY: -2
      advance: 21
      channel: 0
    - index: 0
      x: 174
      y: 60
      width: 25
      height: 26
      offsetX: -2
      offsetY: -2
      advance: 21
      channel: 0
    - index: 0
      x: 87
      y: 60
      width: 25
      height: 26
      offsetX: -2
      offsetY: -2
      advance: 21
      channel: 0
    - index: 0
      x: 58
      y: 60
      width: 25
      height: 26
      offsetX: -2
      offsetY: -2
      advance: 21
      channel: 0
    - index: 0
      x: 178
      y: 30
      width: 25
      height: 26
      offsetX: -2
      offsetY: -2
      advance: 21
      channel: 0
    - index: 0
      x: 0
      y: 151
      width: 25
      height: 25
      offsetX: -2
      offsetY: -1
      advance: 21
      channel: 0
    - index: 0
      x: 0
      y: 0
      width: 0
      height: 0
      offsetX: 0
      offsetY: 0
      advance: 0
      channel: 0
    - index: 0
      x: 203
      y: 353
      width: 25
      height: 20
      offsetX: -2
      offsetY: 4
      advance: 21
      channel: 0
    - index: 0
      x: 87
      y: 90
      width: 25
      height: 26
      offsetX: -2
      offsetY: -2
      advance: 21
      channel: 0
    - index: 0
      x: 203
      y: 60
      width: 25
      height: 26
      offsetX: -2
      offsetY: -2
      advance: 21
      channel: 0
    - index: 0
      x: 58
      y: 90
      width: 25
      height: 26
      offsetX: -2
      offsetY: -2
      advance: 21
      channel: 0
    - index: 0
      x: 58
      y: 150
      width: 25
      height: 25
      offsetX: -2
      offsetY: -1
      advance: 21
      channel: 0
    - index: 0
      x: 90
      y: 30
      width: 26
      height: 26
      offsetX: -3
      offsetY: -2
      advance: 19
      channel: 0
    - index: 0
      x: 0
      y: 259
      width: 25
      height: 21
      offsetX: -2
      offsetY: 3
      advance: 21
      channel: 0
    - index: 0
      x: 0
      y: 309
      width: 44
      height: 20
      offsetX: -1
      offsetY: 4
      advance: 42
      channel: 0
    - index: 0
      x: 30
      y: 30
      width: 26
      height: 26
      offsetX: -3
      offsetY: -2
      advance: 19
      channel: 0
    - index: 0
      x: 134
      y: 0
      width: 26
      height: 26
      offsetX: -3
      offsetY: -2
      advance: 19
      channel: 0
    - index: 0
      x: 104
      y: 0
      width: 26
      height: 26
      offsetX: -3
      offsetY: -2
      advance: 19
      channel: 0
    - index: 0
      x: 224
      y: 0
      width: 26
      height: 26
      offsetX: -3
      offsetY: -2
      advance: 19
      channel: 0
    - index: 0
      x: 139
      y: 120
      width: 26
      height: 25
      offsetX: -3
      offsetY: -1
      advance: 19
      channel: 0
    - index: 0
      x: 0
      y: 31
      width: 26
      height: 26
      offsetX: -3
      offsetY: -2
      advance: 19
      channel: 0
    - index: 0
      x: 48
      y: 309
      width: 31
      height: 20
      offsetX: -3
      offsetY: 4
      advance: 26
      channel: 0
    - index: 0
      x: 0
      y: 180
      width: 24
      height: 25
      offsetX: -1
      offsetY: 4
      advance: 21
      channel: 0
    - index: 0
      x: 174
      y: 90
      width: 25
      height: 26
      offsetX: -1
      offsetY: -2
      advance: 21
      channel: 0
    - index: 0
      x: 145
      y: 60
      width: 25
      height: 26
      offsetX: -1
      offsetY: -2
      advance: 21
      channel: 0
    - index: 0
      x: 203
      y: 90
      width: 25
      height: 26
      offsetX: -1
      offsetY: -2
      advance: 21
      channel: 0
    - index: 0
      x: 116
      y: 150
      width: 25
      height: 25
      offsetX: -1
      offsetY: -1
      advance: 21
      channel: 0
    - index: 0
      x: 92
      y: 120
      width: 13
      height: 26
      offsetX: -4
      offsetY: -2
      advance: 7
      channel: 0
    - index: 0
      x: 58
      y: 120
      width: 13
      height: 26
      offsetX: -2
      offsetY: -2
      advance: 7
      channel: 0
    - index: 0
      x: 236
      y: 30
      width: 16
      height: 26
      offsetX: -5
      offsetY: -2
      advance: 7
      channel: 0
    - index: 0
      x: 230
      y: 149
      width: 15
      height: 25
      offsetX: -4
      offsetY: -1
      advance: 7
      channel: 0
    - index: 0
      x: 211
      y: 303
      width: 26
      height: 20
      offsetX: -3
      offsetY: 4
      advance: 21
      channel: 0
    - index: 0
      x: 0
      y: 121
      width: 25
      height: 26
      offsetX: -2
      offsetY: -2
      advance: 21
      channel: 0
    - index: 0
      x: 29
      y: 121
      width: 25
      height: 26
      offsetX: -2
      offsetY: -2
      advance: 21
      channel: 0
    - index: 0
      x: 145
      y: 90
      width: 25
      height: 26
      offsetX: -2
      offsetY: -2
      advance: 21
      channel: 0
    - index: 0
      x: 120
      y: 30
      width: 25
      height: 26
      offsetX: -2
      offsetY: -2
      advance: 21
      channel: 0
    - index: 0
      x: 29
      y: 91
      width: 25
      height: 26
      offsetX: -2
      offsetY: -2
      advance: 21
      channel: 0
    - index: 0
      x: 87
      y: 150
      width: 25
      height: 25
      offsetX: -2
      offsetY: -1
      advance: 21
      channel: 0
    - index: 0
      x: 0
      y: 0
      width: 0
      height: 0
      offsetX: 0
      offsetY: 0
      advance: 0
      channel: 0
    - index: 0
      x: 145
      y: 381
      width: 25
      height: 20
      offsetX: -2
      offsetY: 4
      advance: 21
      channel: 0
    - index: 0
      x: 149
      y: 30
      width: 25
      height: 26
      offsetX: -2
      offsetY: -2
      advance: 21
      channel: 0
    - index: 0
      x: 207
      y: 30
      width: 25
      height: 26
      offsetX: -2
      offsetY: -2
      advance: 21
      channel: 0
    - index: 0
      x: 29
      y: 61
      width: 25
      height: 26
      offsetX: -2
      offsetY: -2
      advance: 21
      channel: 0
    - index: 0
      x: 145
      y: 149
      width: 25
      height: 25
      offsetX: -2
      offsetY: -1
      advance: 21
      channel: 0
    - index: 0
      x: 74
      y: 0
      width: 26
      height: 26
      offsetX: -3
      offsetY: -2
      advance: 19
      channel: 0
    - index: 0
      x: 0
      y: 284
      width: 25
      height: 21
      offsetX: -2
      offsetY: 3
      advance: 21
      channel: 0
    - index: 0
      x: 199
      y: 120
      width: 26
      height: 25
      offsetX: -3
      offsetY: -1
      advance: 19
      channel: 0
    mSize: 28
    mBase: 21
    mWidth: 256
    mHeight: 512
    mSpriteName: 
    mSaved: []
    mSymbols: []
  mSpacingX: 0
  mSpacingY: 0
  mAtlas: {fileID: 0}
  mReplacement: {fileID: 0}
--- !u!1002 &11400001
EditorExtensionImpl:
  serializedVersion: 6
--- !u!1001 &100100000
Prefab:
  m_ObjectHideFlags: 1
  serializedVersion: 2
  m_Modification:
    m_TransformParent: {fileID: 0}
    m_Modifications: []
    m_RemovedComponents: []
  m_ParentPrefab: {fileID: 0}
  m_RootGameObject: {fileID: 100000}
  m_IsPrefabParent: 1
--- !u!1002 &100100001
EditorExtensionImpl:
  serializedVersion: 6
